1	0	1
2	1	2
3	2	3
4	3	4
5	3	4
6	4	5
7	5	6
8	6	8
9	8	14
10	14	15
11	15	16
12	6	7
13	7	12
14	8	9
15	9	12
16	9	10
17	10	11
18	11	13
19	12	13
20	13	16
21	16	17
22	5	17
23	17	18
24	2	18
25	18	19
26	2	19
27	19	22
28	1	20
29	20	21
30	1	27
31	27	21
32	21	22
33	22	23
34	23	24
35	24	25